{
  "data": {
    "data": [
      {
        "id": 210,
        "user_id": 12,
        "status": null,
        "sold_price": null,
        "revenue": null,
        "invoice_date": null,
        "invoice_number": null,
        "invoice_account": null,
        "sold_date": null,
        "sold_account": null,
        "note": null,
        "month": "07",
        "year": "2025",
        "insurer": {
          "id": 12,
          "name": "Agente con sotto agenti",
          "surname": "Rossi",
          "full_name": "Rossi Agente con sotto agenti",
          "role": "insurer",
          "email": "udb63356@inohm.com",
          "type_code": "U12",
          "is_lead": true
        },
        "docs": []
      },
      {
        "id": 211,
        "user_id": 14,
        "status": null,
        "sold_price": null,
        "revenue": null,
        "invoice_date": null,
        "invoice_number": null,
        "invoice_account": null,
        "sold_date": null,
        "sold_account": null,
        "note": null,
        "month": "07",
        "year": "2025",
        "insurer": {
          "id": 14,
          "name": "Agente",
          "surname": "Bianchi",
          "full_name": "Bianchi Agente",
          "role": "insurer",
          "email": "vnl55301@inohm.com",
          "type_code": "U14",
          "is_lead": true
        },
        "docs": []
      },
      {
        "id": 212,
        "user_id": 16,
        "status": null,
        "sold_price": null,
        "revenue": null,
        "invoice_date": null,
        "invoice_number": null,
        "invoice_account": null,
        "sold_date": null,
        "sold_account": null,
        "note": null,
        "month": "07",
        "year": "2025",
        "insurer": {
          "id": 16,
          "name": "LUIGI",
          "surname": "FILARDI",
          "full_name": "FILARDI LUIGI",
          "role": "insurer",
          "email": "luigi.filandi_nuovolead@gmail.com",
          "type_code": "U16",
          "is_lead": true
        },
        "docs": []
      },
      {
        "id": 213,
        "user_id": 17,
        "status": null,
        "sold_price": null,
        "revenue": null,
        "invoice_date": null,
        "invoice_number": null,
        "invoice_account": null,
        "sold_date": null,
        "sold_account": null,
        "note": null,
        "month": "07",
        "year": "2025",
        "insurer": {
          "id": 17,
          "name": "MARIO",
          "surname": "ROTOCALCHI",
          "full_name": "ROTOCALCHI MARIO",
          "role": "insurer",
          "email": "mario.rotocalchi_nuovolead@gmail.com",
          "type_code": "U17",
          "is_lead": true
        },
        "docs": []
      },
      {
        "id": 214,
        "user_id": 21,
        "status": null,
        "sold_price": null,
        "revenue": null,
        "invoice_date": null,
        "invoice_number": null,
        "invoice_account": null,
        "sold_date": null,
        "sold_account": null,
        "note": null,
        "month": "07",
        "year": "2025",
        "insurer": {
          "id": 21,
          "name": "mat",
          "surname": "assicuratore",
          "full_name": "assicuratore mat",
          "role": "insurer",
          "email": "matteo.pinto.to@gmail.com",
          "type_code": "U21",
          "is_lead": true
        },
        "docs": []
      },
      {
        "id": 215,
        "user_id": 22,
        "status": null,
        "sold_price": null,
        "revenue": null,
        "invoice_date": null,
        "invoice_number": null,
        "invoice_account": null,
        "sold_date": null,
        "sold_account": null,
        "note": null,
        "month": "07",
        "year": "2025",
        "insurer": {
          "id": 22,
          "name": "CARLO",
          "surname": "GONELLA",
          "full_name": "GONELLA CARLO",
          "role": "insurer",
          "email": "karl.okay@gmail.com",
          "type_code": "U22",
          "is_lead": true
        },
        "docs": []
      },
      {
        "id": 216,
        "user_id": 24,
        "status": null,
        "sold_price": null,
        "revenue": null,
        "invoice_date": null,
        "invoice_number": null,
        "invoice_account": null,
        "sold_date": null,
        "sold_account": null,
        "note": null,
        "month": "07",
        "year": "2025",
        "insurer": {
          "id": 24,
          "name": "CARLO MICHELE",
          "surname": "MARCHESI GONELLA",
          "full_name": "MARCHESI GONELLA CARLO MICHELE",
          "role": "insurer",
          "email": "ad.gonella@gmail.com",
          "type_code": "U24",
          "is_lead": true
        },
        "docs": []
      },
      {
        "id": 217,
        "user_id": 25,
        "status": null,
        "sold_price": null,
        "revenue": null,
        "invoice_date": null,
        "invoice_number": null,
        "invoice_account": null,
        "sold_date": null,
        "sold_account": null,
        "note": null,
        "month": "07",
        "year": "2025",
        "insurer": {
          "id": 25,
          "name": "Simona",
          "surname": "Ternavasio",
          "full_name": "Ternavasio Simona",
          "role": "insurer",
          "email": "ternavasiosimona@gmail.com",
          "type_code": "U25",
          "is_lead": true
        },
        "docs": []
      },
      {
        "id": 218,
        "user_id": 27,
        "status": null,
        "sold_price": null,
        "revenue": null,
        "invoice_date": null,
        "invoice_number": null,
        "invoice_account": null,
        "sold_date": null,
        "sold_account": null,
        "note": null,
        "month": "07",
        "year": "2025",
        "insurer": {
          "id": 27,
          "name": "PAOLO",
          "surname": "MARGARIA",
          "full_name": "MARGARIA PAOLO",
          "role": "insurer",
          "email": "paolomargaria71@gmail.com",
          "type_code": "U27",
          "is_lead": true
        },
        "docs": []
      },
      {
        "id": 219,
        "user_id": 28,
        "status": null,
        "sold_price": null,
        "revenue": null,
        "invoice_date": null,
        "invoice_number": null,
        "invoice_account": null,
        "sold_date": null,
        "sold_account": null,
        "note": null,
        "month": "07",
        "year": "2025",
        "insurer": {
          "id": 28,
          "name": "MATTEO",
          "surname": "TERNAVASIO",
          "full_name": "TERNAVASIO MATTEO",
          "role": "insurer",
          "email": "m.ternavasio@gmail.com",
          "type_code": "U28",
          "is_lead": true
        },
        "docs": []
      },
      {
        "id": 220,
        "user_id": 36,
        "status": null,
        "sold_price": null,
        "revenue": null,
        "invoice_date": null,
        "invoice_number": null,
        "invoice_account": null,
        "sold_date": null,
        "sold_account": null,
        "note": null,
        "month": "07",
        "year": "2025",
        "insurer": {
          "id": 36,
          "name": "Antonino",
          "surname": "Ranno",
          "full_name": "Ranno Antonino",
          "role": "insurer",
          "email": "ransicura@gmail.com",
          "type_code": "U36",
          "is_lead": true
        },
        "docs": []
      },
      {
        "id": 221,
        "user_id": 37,
        "status": null,
        "sold_price": null,
        "revenue": null,
        "invoice_date": null,
        "invoice_number": null,
        "invoice_account": null,
        "sold_date": null,
        "sold_account": null,
        "note": null,
        "month": "07",
        "year": "2025",
        "insurer": {
          "id": 37,
          "name": "Elisa",
          "surname": "Grangetto",
          "full_name": "Grangetto Elisa",
          "role": "insurer",
          "email": "elisa@gbgservizi.it",
          "type_code": "U37",
          "is_lead": true
        },
        "docs": []
      },
      {
        "id": 222,
        "user_id": 41,
        "status": null,
        "sold_price": null,
        "revenue": null,
        "invoice_date": null,
        "invoice_number": null,
        "invoice_account": null,
        "sold_date": null,
        "sold_account": null,
        "note": null,
        "month": "07",
        "year": "2025",
        "insurer": {
          "id": 41,
          "name": "Giorgio",
          "surname": "Melli",
          "full_name": "Melli Giorgio",
          "role": "insurer",
          "email": "giorgio.melli@adsecura.it",
          "type_code": "U41",
          "is_lead": true
        },
        "docs": []
      },
      {
        "id": 223,
        "user_id": 42,
        "status": null,
        "sold_price": null,
        "revenue": null,
        "invoice_date": null,
        "invoice_number": null,
        "invoice_account": null,
        "sold_date": null,
        "sold_account": null,
        "note": null,
        "month": "07",
        "year": "2025",
        "insurer": {
          "id": 42,
          "name": "Gualtiero",
          "surname": "Appiano",
          "full_name": "Appiano Gualtiero",
          "role": "insurer",
          "email": "mrgsrl@mrgconsulenzeassicurative.com",
          "type_code": "U42",
          "is_lead": true
        },
        "docs": []
      },
      {
        "id": 224,
        "user_id": 43,
        "status": null,
        "sold_price": null,
        "revenue": null,
        "invoice_date": null,
        "invoice_number": null,
        "invoice_account": null,
        "sold_date": null,
        "sold_account": null,
        "note": null,
        "month": "07",
        "year": "2025",
        "insurer": {
          "id": 43,
          "name": "Annalisa",
          "surname": "Bocchino",
          "full_name": "Bocchino Annalisa",
          "role": "insurer",
          "email": "labibianese@hotmail.it",
          "type_code": "U43",
          "is_lead": true
        },
        "docs": []
      }
    ],
    "per_page": 15,
    "total": 17,
    "last_page": 2,
    "to": 15,
    "from": 1,
    "current_page": 1,
    "first_page_url": "https://cristallocare.test/api/accountings?page=1",
    "last_page_url": "https://cristallocare.test/api/accountings?page=2",
    "next_page_url": "https://cristallocare.test/api/accountings?page=2",
    "prev_page_url": null,
    "sum": []
  },
  "error": false,
  "error_code": 0,
  "error_message": "No errors"
}
